ERROR - 2022-11-08 02:31:40 --> Error connecting to the database: mysqli_sql_exception: Access denied for user 'vicent'@'localhost' (using password: YES) in /datos/usuarios/alumnos/a023942078k/lampstack-8.1.11-0/frameworks/codeigniter/system/Database/MySQLi/Connection.php:171
Stack trace:
#0 /datos/usuarios/alumnos/a023942078k/lampstack-8.1.11-0/frameworks/codeigniter/system/Database/MySQLi/Connection.php(171): mysqli->real_connect()
#1 /datos/usuarios/alumnos/a023942078k/lampstack-8.1.11-0/frameworks/codeigniter/system/Database/BaseConnection.php(382): CodeIgniter\Database\MySQLi\Connection->connect()
#2 /datos/usuarios/alumnos/a023942078k/lampstack-8.1.11-0/frameworks/codeigniter/system/Database/BaseConnection.php(588): CodeIgniter\Database\BaseConnection->initialize()
#3 /datos/usuarios/alumnos/a023942078k/lampstack-8.1.11-0/frameworks/codeigniter/system/Database/BaseBuilder.php(1585): CodeIgniter\Database\BaseConnection->query()
#4 /datos/usuarios/alumnos/a023942078k/lampstack-8.1.11-0/frameworks/codeigniter/system/Model.php(223): CodeIgniter\Database\BaseBuilder->get()
#5 /datos/usuarios/alumnos/a023942078k/lampstack-8.1.11-0/frameworks/codeigniter/system/BaseModel.php(584): CodeIgniter\Model->doFindAll()
#6 /datos/usuarios/alumnos/a023942078k/lampstack-8.1.11-0/frameworks/codeigniter/app/Controllers/Home.php(90): CodeIgniter\BaseModel->findAll()
#7 /datos/usuarios/alumnos/a023942078k/lampstack-8.1.11-0/frameworks/codeigniter/system/CodeIgniter.php(902): App\Controllers\Home->listaGrupos()
#8 /datos/usuarios/alumnos/a023942078k/lampstack-8.1.11-0/frameworks/codeigniter/system/CodeIgniter.php(457): CodeIgniter\CodeIgniter->runController()
#9 /datos/usuarios/alumnos/a023942078k/lampstack-8.1.11-0/frameworks/codeigniter/system/CodeIgniter.php(340): CodeIgniter\CodeIgniter->handleRequest()
#10 /datos/usuarios/alumnos/a023942078k/lampstack-8.1.11-0/frameworks/codeigniter/public/index.php(67): CodeIgniter\CodeIgniter->run()
#11 {main}

Next CodeIgniter\Database\Exceptions\DatabaseException: Access denied for user '****'@'localhost' (using password: YES) in /datos/usuarios/alumnos/a023942078k/lampstack-8.1.11-0/frameworks/codeigniter/system/Database/MySQLi/Connection.php:215
Stack trace:
#0 /datos/usuarios/alumnos/a023942078k/lampstack-8.1.11-0/frameworks/codeigniter/system/Database/BaseConnection.php(382): CodeIgniter\Database\MySQLi\Connection->connect()
#1 /datos/usuarios/alumnos/a023942078k/lampstack-8.1.11-0/frameworks/codeigniter/system/Database/BaseConnection.php(588): CodeIgniter\Database\BaseConnection->initialize()
#2 /datos/usuarios/alumnos/a023942078k/lampstack-8.1.11-0/frameworks/codeigniter/system/Database/BaseBuilder.php(1585): CodeIgniter\Database\BaseConnection->query()
#3 /datos/usuarios/alumnos/a023942078k/lampstack-8.1.11-0/frameworks/codeigniter/system/Model.php(223): CodeIgniter\Database\BaseBuilder->get()
#4 /datos/usuarios/alumnos/a023942078k/lampstack-8.1.11-0/frameworks/codeigniter/system/BaseModel.php(584): CodeIgniter\Model->doFindAll()
#5 /datos/usuarios/alumnos/a023942078k/lampstack-8.1.11-0/frameworks/codeigniter/app/Controllers/Home.php(90): CodeIgniter\BaseModel->findAll()
#6 /datos/usuarios/alumnos/a023942078k/lampstack-8.1.11-0/frameworks/codeigniter/system/CodeIgniter.php(902): App\Controllers\Home->listaGrupos()
#7 /datos/usuarios/alumnos/a023942078k/lampstack-8.1.11-0/frameworks/codeigniter/system/CodeIgniter.php(457): CodeIgniter\CodeIgniter->runController()
#8 /datos/usuarios/alumnos/a023942078k/lampstack-8.1.11-0/frameworks/codeigniter/system/CodeIgniter.php(340): CodeIgniter\CodeIgniter->handleRequest()
#9 /datos/usuarios/alumnos/a023942078k/lampstack-8.1.11-0/frameworks/codeigniter/public/index.php(67): CodeIgniter\CodeIgniter->run()
#10 {main}
CRITICAL - 2022-11-08 02:31:40 --> Unable to connect to the database.
Main connection [MySQLi]: Access denied for user '****'@'localhost' (using password: YES)
in SYSTEMPATH/Database/BaseConnection.php on line 418.
 1 SYSTEMPATH/Database/BaseConnection.php(588): CodeIgniter\Database\BaseConnection->initialize()
 2 SYSTEMPATH/Database/BaseBuilder.php(1585): CodeIgniter\Database\BaseConnection->query()
 3 SYSTEMPATH/Model.php(223): CodeIgniter\Database\BaseBuilder->get()
 4 SYSTEMPATH/BaseModel.php(584): CodeIgniter\Model->doFindAll()
 5 APPPATH/Controllers/Home.php(90): CodeIgniter\BaseModel->findAll()
 6 SYSTEMPATH/CodeIgniter.php(902): App\Controllers\Home->listaGrupos()
 7 SYSTEMPATH/CodeIgniter.php(457): CodeIgniter\CodeIgniter->runController()
 8 SYSTEMPATH/CodeIgniter.php(340): CodeIgniter\CodeIgniter->handleRequest()
 9 FCPATH/index.php(67): CodeIgniter\CodeIgniter->run()
ERROR - 2022-11-08 02:31:40 --> Error connecting to the database: mysqli_sql_exception: Access denied for user 'vicent'@'localhost' (using password: YES) in /datos/usuarios/alumnos/a023942078k/lampstack-8.1.11-0/frameworks/codeigniter/system/Database/MySQLi/Connection.php:171
Stack trace:
#0 /datos/usuarios/alumnos/a023942078k/lampstack-8.1.11-0/frameworks/codeigniter/system/Database/MySQLi/Connection.php(171): mysqli->real_connect()
#1 /datos/usuarios/alumnos/a023942078k/lampstack-8.1.11-0/frameworks/codeigniter/system/Database/BaseConnection.php(382): CodeIgniter\Database\MySQLi\Connection->connect()
#2 /datos/usuarios/alumnos/a023942078k/lampstack-8.1.11-0/frameworks/codeigniter/system/Database/BaseConnection.php(588): CodeIgniter\Database\BaseConnection->initialize()
#3 /datos/usuarios/alumnos/a023942078k/lampstack-8.1.11-0/frameworks/codeigniter/system/Database/BaseBuilder.php(1585): CodeIgniter\Database\BaseConnection->query()
#4 /datos/usuarios/alumnos/a023942078k/lampstack-8.1.11-0/frameworks/codeigniter/system/Model.php(223): CodeIgniter\Database\BaseBuilder->get()
#5 /datos/usuarios/alumnos/a023942078k/lampstack-8.1.11-0/frameworks/codeigniter/system/BaseModel.php(584): CodeIgniter\Model->doFindAll()
#6 /datos/usuarios/alumnos/a023942078k/lampstack-8.1.11-0/frameworks/codeigniter/app/Controllers/Home.php(90): CodeIgniter\BaseModel->findAll()
#7 /datos/usuarios/alumnos/a023942078k/lampstack-8.1.11-0/frameworks/codeigniter/system/CodeIgniter.php(902): App\Controllers\Home->listaGrupos()
#8 /datos/usuarios/alumnos/a023942078k/lampstack-8.1.11-0/frameworks/codeigniter/system/CodeIgniter.php(457): CodeIgniter\CodeIgniter->runController()
#9 /datos/usuarios/alumnos/a023942078k/lampstack-8.1.11-0/frameworks/codeigniter/system/CodeIgniter.php(340): CodeIgniter\CodeIgniter->handleRequest()
#10 /datos/usuarios/alumnos/a023942078k/lampstack-8.1.11-0/frameworks/codeigniter/public/index.php(67): CodeIgniter\CodeIgniter->run()
#11 {main}

Next CodeIgniter\Database\Exceptions\DatabaseException: Access denied for user '****'@'localhost' (using password: YES) in /datos/usuarios/alumnos/a023942078k/lampstack-8.1.11-0/frameworks/codeigniter/system/Database/MySQLi/Connection.php:215
Stack trace:
#0 /datos/usuarios/alumnos/a023942078k/lampstack-8.1.11-0/frameworks/codeigniter/system/Database/BaseConnection.php(382): CodeIgniter\Database\MySQLi\Connection->connect()
#1 /datos/usuarios/alumnos/a023942078k/lampstack-8.1.11-0/frameworks/codeigniter/system/Database/BaseConnection.php(588): CodeIgniter\Database\BaseConnection->initialize()
#2 /datos/usuarios/alumnos/a023942078k/lampstack-8.1.11-0/frameworks/codeigniter/system/Database/BaseBuilder.php(1585): CodeIgniter\Database\BaseConnection->query()
#3 /datos/usuarios/alumnos/a023942078k/lampstack-8.1.11-0/frameworks/codeigniter/system/Model.php(223): CodeIgniter\Database\BaseBuilder->get()
#4 /datos/usuarios/alumnos/a023942078k/lampstack-8.1.11-0/frameworks/codeigniter/system/BaseModel.php(584): CodeIgniter\Model->doFindAll()
#5 /datos/usuarios/alumnos/a023942078k/lampstack-8.1.11-0/frameworks/codeigniter/app/Controllers/Home.php(90): CodeIgniter\BaseModel->findAll()
#6 /datos/usuarios/alumnos/a023942078k/lampstack-8.1.11-0/frameworks/codeigniter/system/CodeIgniter.php(902): App\Controllers\Home->listaGrupos()
#7 /datos/usuarios/alumnos/a023942078k/lampstack-8.1.11-0/frameworks/codeigniter/system/CodeIgniter.php(457): CodeIgniter\CodeIgniter->runController()
#8 /datos/usuarios/alumnos/a023942078k/lampstack-8.1.11-0/frameworks/codeigniter/system/CodeIgniter.php(340): CodeIgniter\CodeIgniter->handleRequest()
#9 /datos/usuarios/alumnos/a023942078k/lampstack-8.1.11-0/frameworks/codeigniter/public/index.php(67): CodeIgniter\CodeIgniter->run()
#10 {main}
CRITICAL - 2022-11-08 02:31:40 --> Unable to connect to the database.
Main connection [MySQLi]: Access denied for user '****'@'localhost' (using password: YES)
in SYSTEMPATH/Database/BaseConnection.php on line 418.
 1 SYSTEMPATH/Database/BaseConnection.php(588): CodeIgniter\Database\BaseConnection->initialize()
 2 SYSTEMPATH/Database/BaseBuilder.php(1585): CodeIgniter\Database\BaseConnection->query()
 3 SYSTEMPATH/Model.php(223): CodeIgniter\Database\BaseBuilder->get()
 4 SYSTEMPATH/BaseModel.php(584): CodeIgniter\Model->doFindAll()
 5 APPPATH/Controllers/Home.php(90): CodeIgniter\BaseModel->findAll()
 6 SYSTEMPATH/CodeIgniter.php(902): App\Controllers\Home->listaGrupos()
 7 SYSTEMPATH/CodeIgniter.php(457): CodeIgniter\CodeIgniter->runController()
 8 SYSTEMPATH/CodeIgniter.php(340): CodeIgniter\CodeIgniter->handleRequest()
 9 FCPATH/index.php(67): CodeIgniter\CodeIgniter->run()
ERROR - 2022-11-08 02:32:46 --> Error connecting to the database: mysqli_sql_exception: Access denied for user 'vicent'@'localhost' (using password: YES) in /datos/usuarios/alumnos/a023942078k/lampstack-8.1.11-0/frameworks/codeigniter/system/Database/MySQLi/Connection.php:171
Stack trace:
#0 /datos/usuarios/alumnos/a023942078k/lampstack-8.1.11-0/frameworks/codeigniter/system/Database/MySQLi/Connection.php(171): mysqli->real_connect()
#1 /datos/usuarios/alumnos/a023942078k/lampstack-8.1.11-0/frameworks/codeigniter/system/Database/BaseConnection.php(382): CodeIgniter\Database\MySQLi\Connection->connect()
#2 /datos/usuarios/alumnos/a023942078k/lampstack-8.1.11-0/frameworks/codeigniter/system/Database/BaseConnection.php(588): CodeIgniter\Database\BaseConnection->initialize()
#3 /datos/usuarios/alumnos/a023942078k/lampstack-8.1.11-0/frameworks/codeigniter/system/Database/BaseBuilder.php(1585): CodeIgniter\Database\BaseConnection->query()
#4 /datos/usuarios/alumnos/a023942078k/lampstack-8.1.11-0/frameworks/codeigniter/system/Model.php(223): CodeIgniter\Database\BaseBuilder->get()
#5 /datos/usuarios/alumnos/a023942078k/lampstack-8.1.11-0/frameworks/codeigniter/system/BaseModel.php(584): CodeIgniter\Model->doFindAll()
#6 /datos/usuarios/alumnos/a023942078k/lampstack-8.1.11-0/frameworks/codeigniter/app/Controllers/Home.php(90): CodeIgniter\BaseModel->findAll()
#7 /datos/usuarios/alumnos/a023942078k/lampstack-8.1.11-0/frameworks/codeigniter/system/CodeIgniter.php(902): App\Controllers\Home->listaGrupos()
#8 /datos/usuarios/alumnos/a023942078k/lampstack-8.1.11-0/frameworks/codeigniter/system/CodeIgniter.php(457): CodeIgniter\CodeIgniter->runController()
#9 /datos/usuarios/alumnos/a023942078k/lampstack-8.1.11-0/frameworks/codeigniter/system/CodeIgniter.php(340): CodeIgniter\CodeIgniter->handleRequest()
#10 /datos/usuarios/alumnos/a023942078k/lampstack-8.1.11-0/frameworks/codeigniter/public/index.php(67): CodeIgniter\CodeIgniter->run()
#11 {main}

Next CodeIgniter\Database\Exceptions\DatabaseException: Access denied for user '****'@'localhost' (using password: YES) in /datos/usuarios/alumnos/a023942078k/lampstack-8.1.11-0/frameworks/codeigniter/system/Database/MySQLi/Connection.php:215
Stack trace:
#0 /datos/usuarios/alumnos/a023942078k/lampstack-8.1.11-0/frameworks/codeigniter/system/Database/BaseConnection.php(382): CodeIgniter\Database\MySQLi\Connection->connect()
#1 /datos/usuarios/alumnos/a023942078k/lampstack-8.1.11-0/frameworks/codeigniter/system/Database/BaseConnection.php(588): CodeIgniter\Database\BaseConnection->initialize()
#2 /datos/usuarios/alumnos/a023942078k/lampstack-8.1.11-0/frameworks/codeigniter/system/Database/BaseBuilder.php(1585): CodeIgniter\Database\BaseConnection->query()
#3 /datos/usuarios/alumnos/a023942078k/lampstack-8.1.11-0/frameworks/codeigniter/system/Model.php(223): CodeIgniter\Database\BaseBuilder->get()
#4 /datos/usuarios/alumnos/a023942078k/lampstack-8.1.11-0/frameworks/codeigniter/system/BaseModel.php(584): CodeIgniter\Model->doFindAll()
#5 /datos/usuarios/alumnos/a023942078k/lampstack-8.1.11-0/frameworks/codeigniter/app/Controllers/Home.php(90): CodeIgniter\BaseModel->findAll()
#6 /datos/usuarios/alumnos/a023942078k/lampstack-8.1.11-0/frameworks/codeigniter/system/CodeIgniter.php(902): App\Controllers\Home->listaGrupos()
#7 /datos/usuarios/alumnos/a023942078k/lampstack-8.1.11-0/frameworks/codeigniter/system/CodeIgniter.php(457): CodeIgniter\CodeIgniter->runController()
#8 /datos/usuarios/alumnos/a023942078k/lampstack-8.1.11-0/frameworks/codeigniter/system/CodeIgniter.php(340): CodeIgniter\CodeIgniter->handleRequest()
#9 /datos/usuarios/alumnos/a023942078k/lampstack-8.1.11-0/frameworks/codeigniter/public/index.php(67): CodeIgniter\CodeIgniter->run()
#10 {main}
CRITICAL - 2022-11-08 02:32:46 --> Unable to connect to the database.
Main connection [MySQLi]: Access denied for user '****'@'localhost' (using password: YES)
in SYSTEMPATH/Database/BaseConnection.php on line 418.
 1 SYSTEMPATH/Database/BaseConnection.php(588): CodeIgniter\Database\BaseConnection->initialize()
 2 SYSTEMPATH/Database/BaseBuilder.php(1585): CodeIgniter\Database\BaseConnection->query()
 3 SYSTEMPATH/Model.php(223): CodeIgniter\Database\BaseBuilder->get()
 4 SYSTEMPATH/BaseModel.php(584): CodeIgniter\Model->doFindAll()
 5 APPPATH/Controllers/Home.php(90): CodeIgniter\BaseModel->findAll()
 6 SYSTEMPATH/CodeIgniter.php(902): App\Controllers\Home->listaGrupos()
 7 SYSTEMPATH/CodeIgniter.php(457): CodeIgniter\CodeIgniter->runController()
 8 SYSTEMPATH/CodeIgniter.php(340): CodeIgniter\CodeIgniter->handleRequest()
 9 FCPATH/index.php(67): CodeIgniter\CodeIgniter->run()
ERROR - 2022-11-08 02:32:47 --> Error connecting to the database: mysqli_sql_exception: Access denied for user 'vicent'@'localhost' (using password: YES) in /datos/usuarios/alumnos/a023942078k/lampstack-8.1.11-0/frameworks/codeigniter/system/Database/MySQLi/Connection.php:171
Stack trace:
#0 /datos/usuarios/alumnos/a023942078k/lampstack-8.1.11-0/frameworks/codeigniter/system/Database/MySQLi/Connection.php(171): mysqli->real_connect()
#1 /datos/usuarios/alumnos/a023942078k/lampstack-8.1.11-0/frameworks/codeigniter/system/Database/BaseConnection.php(382): CodeIgniter\Database\MySQLi\Connection->connect()
#2 /datos/usuarios/alumnos/a023942078k/lampstack-8.1.11-0/frameworks/codeigniter/system/Database/BaseConnection.php(588): CodeIgniter\Database\BaseConnection->initialize()
#3 /datos/usuarios/alumnos/a023942078k/lampstack-8.1.11-0/frameworks/codeigniter/system/Database/BaseBuilder.php(1585): CodeIgniter\Database\BaseConnection->query()
#4 /datos/usuarios/alumnos/a023942078k/lampstack-8.1.11-0/frameworks/codeigniter/system/Model.php(223): CodeIgniter\Database\BaseBuilder->get()
#5 /datos/usuarios/alumnos/a023942078k/lampstack-8.1.11-0/frameworks/codeigniter/system/BaseModel.php(584): CodeIgniter\Model->doFindAll()
#6 /datos/usuarios/alumnos/a023942078k/lampstack-8.1.11-0/frameworks/codeigniter/app/Controllers/Home.php(90): CodeIgniter\BaseModel->findAll()
#7 /datos/usuarios/alumnos/a023942078k/lampstack-8.1.11-0/frameworks/codeigniter/system/CodeIgniter.php(902): App\Controllers\Home->listaGrupos()
#8 /datos/usuarios/alumnos/a023942078k/lampstack-8.1.11-0/frameworks/codeigniter/system/CodeIgniter.php(457): CodeIgniter\CodeIgniter->runController()
#9 /datos/usuarios/alumnos/a023942078k/lampstack-8.1.11-0/frameworks/codeigniter/system/CodeIgniter.php(340): CodeIgniter\CodeIgniter->handleRequest()
#10 /datos/usuarios/alumnos/a023942078k/lampstack-8.1.11-0/frameworks/codeigniter/public/index.php(67): CodeIgniter\CodeIgniter->run()
#11 {main}

Next CodeIgniter\Database\Exceptions\DatabaseException: Access denied for user '****'@'localhost' (using password: YES) in /datos/usuarios/alumnos/a023942078k/lampstack-8.1.11-0/frameworks/codeigniter/system/Database/MySQLi/Connection.php:215
Stack trace:
#0 /datos/usuarios/alumnos/a023942078k/lampstack-8.1.11-0/frameworks/codeigniter/system/Database/BaseConnection.php(382): CodeIgniter\Database\MySQLi\Connection->connect()
#1 /datos/usuarios/alumnos/a023942078k/lampstack-8.1.11-0/frameworks/codeigniter/system/Database/BaseConnection.php(588): CodeIgniter\Database\BaseConnection->initialize()
#2 /datos/usuarios/alumnos/a023942078k/lampstack-8.1.11-0/frameworks/codeigniter/system/Database/BaseBuilder.php(1585): CodeIgniter\Database\BaseConnection->query()
#3 /datos/usuarios/alumnos/a023942078k/lampstack-8.1.11-0/frameworks/codeigniter/system/Model.php(223): CodeIgniter\Database\BaseBuilder->get()
#4 /datos/usuarios/alumnos/a023942078k/lampstack-8.1.11-0/frameworks/codeigniter/system/BaseModel.php(584): CodeIgniter\Model->doFindAll()
#5 /datos/usuarios/alumnos/a023942078k/lampstack-8.1.11-0/frameworks/codeigniter/app/Controllers/Home.php(90): CodeIgniter\BaseModel->findAll()
#6 /datos/usuarios/alumnos/a023942078k/lampstack-8.1.11-0/frameworks/codeigniter/system/CodeIgniter.php(902): App\Controllers\Home->listaGrupos()
#7 /datos/usuarios/alumnos/a023942078k/lampstack-8.1.11-0/frameworks/codeigniter/system/CodeIgniter.php(457): CodeIgniter\CodeIgniter->runController()
#8 /datos/usuarios/alumnos/a023942078k/lampstack-8.1.11-0/frameworks/codeigniter/system/CodeIgniter.php(340): CodeIgniter\CodeIgniter->handleRequest()
#9 /datos/usuarios/alumnos/a023942078k/lampstack-8.1.11-0/frameworks/codeigniter/public/index.php(67): CodeIgniter\CodeIgniter->run()
#10 {main}
CRITICAL - 2022-11-08 02:32:47 --> Unable to connect to the database.
Main connection [MySQLi]: Access denied for user '****'@'localhost' (using password: YES)
in SYSTEMPATH/Database/BaseConnection.php on line 418.
 1 SYSTEMPATH/Database/BaseConnection.php(588): CodeIgniter\Database\BaseConnection->initialize()
 2 SYSTEMPATH/Database/BaseBuilder.php(1585): CodeIgniter\Database\BaseConnection->query()
 3 SYSTEMPATH/Model.php(223): CodeIgniter\Database\BaseBuilder->get()
 4 SYSTEMPATH/BaseModel.php(584): CodeIgniter\Model->doFindAll()
 5 APPPATH/Controllers/Home.php(90): CodeIgniter\BaseModel->findAll()
 6 SYSTEMPATH/CodeIgniter.php(902): App\Controllers\Home->listaGrupos()
 7 SYSTEMPATH/CodeIgniter.php(457): CodeIgniter\CodeIgniter->runController()
 8 SYSTEMPATH/CodeIgniter.php(340): CodeIgniter\CodeIgniter->handleRequest()
 9 FCPATH/index.php(67): CodeIgniter\CodeIgniter->run()
ERROR - 2022-11-08 02:35:28 --> Error connecting to the database: mysqli_sql_exception: Access denied for user 'vicent'@'localhost' (using password: YES) in /datos/usuarios/alumnos/a023942078k/lampstack-8.1.11-0/frameworks/codeigniter/system/Database/MySQLi/Connection.php:171
Stack trace:
#0 /datos/usuarios/alumnos/a023942078k/lampstack-8.1.11-0/frameworks/codeigniter/system/Database/MySQLi/Connection.php(171): mysqli->real_connect()
#1 /datos/usuarios/alumnos/a023942078k/lampstack-8.1.11-0/frameworks/codeigniter/system/Database/BaseConnection.php(382): CodeIgniter\Database\MySQLi\Connection->connect()
#2 /datos/usuarios/alumnos/a023942078k/lampstack-8.1.11-0/frameworks/codeigniter/system/Database/BaseConnection.php(588): CodeIgniter\Database\BaseConnection->initialize()
#3 /datos/usuarios/alumnos/a023942078k/lampstack-8.1.11-0/frameworks/codeigniter/system/Database/BaseBuilder.php(1585): CodeIgniter\Database\BaseConnection->query()
#4 /datos/usuarios/alumnos/a023942078k/lampstack-8.1.11-0/frameworks/codeigniter/system/Model.php(223): CodeIgniter\Database\BaseBuilder->get()
#5 /datos/usuarios/alumnos/a023942078k/lampstack-8.1.11-0/frameworks/codeigniter/system/BaseModel.php(584): CodeIgniter\Model->doFindAll()
#6 /datos/usuarios/alumnos/a023942078k/lampstack-8.1.11-0/frameworks/codeigniter/app/Controllers/Home.php(90): CodeIgniter\BaseModel->findAll()
#7 /datos/usuarios/alumnos/a023942078k/lampstack-8.1.11-0/frameworks/codeigniter/system/CodeIgniter.php(902): App\Controllers\Home->listaGrupos()
#8 /datos/usuarios/alumnos/a023942078k/lampstack-8.1.11-0/frameworks/codeigniter/system/CodeIgniter.php(457): CodeIgniter\CodeIgniter->runController()
#9 /datos/usuarios/alumnos/a023942078k/lampstack-8.1.11-0/frameworks/codeigniter/system/CodeIgniter.php(340): CodeIgniter\CodeIgniter->handleRequest()
#10 /datos/usuarios/alumnos/a023942078k/lampstack-8.1.11-0/frameworks/codeigniter/public/index.php(67): CodeIgniter\CodeIgniter->run()
#11 {main}

Next CodeIgniter\Database\Exceptions\DatabaseException: Access denied for user '****'@'localhost' (using password: YES) in /datos/usuarios/alumnos/a023942078k/lampstack-8.1.11-0/frameworks/codeigniter/system/Database/MySQLi/Connection.php:215
Stack trace:
#0 /datos/usuarios/alumnos/a023942078k/lampstack-8.1.11-0/frameworks/codeigniter/system/Database/BaseConnection.php(382): CodeIgniter\Database\MySQLi\Connection->connect()
#1 /datos/usuarios/alumnos/a023942078k/lampstack-8.1.11-0/frameworks/codeigniter/system/Database/BaseConnection.php(588): CodeIgniter\Database\BaseConnection->initialize()
#2 /datos/usuarios/alumnos/a023942078k/lampstack-8.1.11-0/frameworks/codeigniter/system/Database/BaseBuilder.php(1585): CodeIgniter\Database\BaseConnection->query()
#3 /datos/usuarios/alumnos/a023942078k/lampstack-8.1.11-0/frameworks/codeigniter/system/Model.php(223): CodeIgniter\Database\BaseBuilder->get()
#4 /datos/usuarios/alumnos/a023942078k/lampstack-8.1.11-0/frameworks/codeigniter/system/BaseModel.php(584): CodeIgniter\Model->doFindAll()
#5 /datos/usuarios/alumnos/a023942078k/lampstack-8.1.11-0/frameworks/codeigniter/app/Controllers/Home.php(90): CodeIgniter\BaseModel->findAll()
#6 /datos/usuarios/alumnos/a023942078k/lampstack-8.1.11-0/frameworks/codeigniter/system/CodeIgniter.php(902): App\Controllers\Home->listaGrupos()
#7 /datos/usuarios/alumnos/a023942078k/lampstack-8.1.11-0/frameworks/codeigniter/system/CodeIgniter.php(457): CodeIgniter\CodeIgniter->runController()
#8 /datos/usuarios/alumnos/a023942078k/lampstack-8.1.11-0/frameworks/codeigniter/system/CodeIgniter.php(340): CodeIgniter\CodeIgniter->handleRequest()
#9 /datos/usuarios/alumnos/a023942078k/lampstack-8.1.11-0/frameworks/codeigniter/public/index.php(67): CodeIgniter\CodeIgniter->run()
#10 {main}
CRITICAL - 2022-11-08 02:35:28 --> Unable to connect to the database.
Main connection [MySQLi]: Access denied for user '****'@'localhost' (using password: YES)
in SYSTEMPATH/Database/BaseConnection.php on line 418.
 1 SYSTEMPATH/Database/BaseConnection.php(588): CodeIgniter\Database\BaseConnection->initialize()
 2 SYSTEMPATH/Database/BaseBuilder.php(1585): CodeIgniter\Database\BaseConnection->query()
 3 SYSTEMPATH/Model.php(223): CodeIgniter\Database\BaseBuilder->get()
 4 SYSTEMPATH/BaseModel.php(584): CodeIgniter\Model->doFindAll()
 5 APPPATH/Controllers/Home.php(90): CodeIgniter\BaseModel->findAll()
 6 SYSTEMPATH/CodeIgniter.php(902): App\Controllers\Home->listaGrupos()
 7 SYSTEMPATH/CodeIgniter.php(457): CodeIgniter\CodeIgniter->runController()
 8 SYSTEMPATH/CodeIgniter.php(340): CodeIgniter\CodeIgniter->handleRequest()
 9 FCPATH/index.php(67): CodeIgniter\CodeIgniter->run()
ERROR - 2022-11-08 02:35:29 --> Error connecting to the database: mysqli_sql_exception: Access denied for user 'vicent'@'localhost' (using password: YES) in /datos/usuarios/alumnos/a023942078k/lampstack-8.1.11-0/frameworks/codeigniter/system/Database/MySQLi/Connection.php:171
Stack trace:
#0 /datos/usuarios/alumnos/a023942078k/lampstack-8.1.11-0/frameworks/codeigniter/system/Database/MySQLi/Connection.php(171): mysqli->real_connect()
#1 /datos/usuarios/alumnos/a023942078k/lampstack-8.1.11-0/frameworks/codeigniter/system/Database/BaseConnection.php(382): CodeIgniter\Database\MySQLi\Connection->connect()
#2 /datos/usuarios/alumnos/a023942078k/lampstack-8.1.11-0/frameworks/codeigniter/system/Database/BaseConnection.php(588): CodeIgniter\Database\BaseConnection->initialize()
#3 /datos/usuarios/alumnos/a023942078k/lampstack-8.1.11-0/frameworks/codeigniter/system/Database/BaseBuilder.php(1585): CodeIgniter\Database\BaseConnection->query()
#4 /datos/usuarios/alumnos/a023942078k/lampstack-8.1.11-0/frameworks/codeigniter/system/Model.php(223): CodeIgniter\Database\BaseBuilder->get()
#5 /datos/usuarios/alumnos/a023942078k/lampstack-8.1.11-0/frameworks/codeigniter/system/BaseModel.php(584): CodeIgniter\Model->doFindAll()
#6 /datos/usuarios/alumnos/a023942078k/lampstack-8.1.11-0/frameworks/codeigniter/app/Controllers/Home.php(90): CodeIgniter\BaseModel->findAll()
#7 /datos/usuarios/alumnos/a023942078k/lampstack-8.1.11-0/frameworks/codeigniter/system/CodeIgniter.php(902): App\Controllers\Home->listaGrupos()
#8 /datos/usuarios/alumnos/a023942078k/lampstack-8.1.11-0/frameworks/codeigniter/system/CodeIgniter.php(457): CodeIgniter\CodeIgniter->runController()
#9 /datos/usuarios/alumnos/a023942078k/lampstack-8.1.11-0/frameworks/codeigniter/system/CodeIgniter.php(340): CodeIgniter\CodeIgniter->handleRequest()
#10 /datos/usuarios/alumnos/a023942078k/lampstack-8.1.11-0/frameworks/codeigniter/public/index.php(67): CodeIgniter\CodeIgniter->run()
#11 {main}

Next CodeIgniter\Database\Exceptions\DatabaseException: Access denied for user '****'@'localhost' (using password: YES) in /datos/usuarios/alumnos/a023942078k/lampstack-8.1.11-0/frameworks/codeigniter/system/Database/MySQLi/Connection.php:215
Stack trace:
#0 /datos/usuarios/alumnos/a023942078k/lampstack-8.1.11-0/frameworks/codeigniter/system/Database/BaseConnection.php(382): CodeIgniter\Database\MySQLi\Connection->connect()
#1 /datos/usuarios/alumnos/a023942078k/lampstack-8.1.11-0/frameworks/codeigniter/system/Database/BaseConnection.php(588): CodeIgniter\Database\BaseConnection->initialize()
#2 /datos/usuarios/alumnos/a023942078k/lampstack-8.1.11-0/frameworks/codeigniter/system/Database/BaseBuilder.php(1585): CodeIgniter\Database\BaseConnection->query()
#3 /datos/usuarios/alumnos/a023942078k/lampstack-8.1.11-0/frameworks/codeigniter/system/Model.php(223): CodeIgniter\Database\BaseBuilder->get()
#4 /datos/usuarios/alumnos/a023942078k/lampstack-8.1.11-0/frameworks/codeigniter/system/BaseModel.php(584): CodeIgniter\Model->doFindAll()
#5 /datos/usuarios/alumnos/a023942078k/lampstack-8.1.11-0/frameworks/codeigniter/app/Controllers/Home.php(90): CodeIgniter\BaseModel->findAll()
#6 /datos/usuarios/alumnos/a023942078k/lampstack-8.1.11-0/frameworks/codeigniter/system/CodeIgniter.php(902): App\Controllers\Home->listaGrupos()
#7 /datos/usuarios/alumnos/a023942078k/lampstack-8.1.11-0/frameworks/codeigniter/system/CodeIgniter.php(457): CodeIgniter\CodeIgniter->runController()
#8 /datos/usuarios/alumnos/a023942078k/lampstack-8.1.11-0/frameworks/codeigniter/system/CodeIgniter.php(340): CodeIgniter\CodeIgniter->handleRequest()
#9 /datos/usuarios/alumnos/a023942078k/lampstack-8.1.11-0/frameworks/codeigniter/public/index.php(67): CodeIgniter\CodeIgniter->run()
#10 {main}
CRITICAL - 2022-11-08 02:35:29 --> Unable to connect to the database.
Main connection [MySQLi]: Access denied for user '****'@'localhost' (using password: YES)
in SYSTEMPATH/Database/BaseConnection.php on line 418.
 1 SYSTEMPATH/Database/BaseConnection.php(588): CodeIgniter\Database\BaseConnection->initialize()
 2 SYSTEMPATH/Database/BaseBuilder.php(1585): CodeIgniter\Database\BaseConnection->query()
 3 SYSTEMPATH/Model.php(223): CodeIgniter\Database\BaseBuilder->get()
 4 SYSTEMPATH/BaseModel.php(584): CodeIgniter\Model->doFindAll()
 5 APPPATH/Controllers/Home.php(90): CodeIgniter\BaseModel->findAll()
 6 SYSTEMPATH/CodeIgniter.php(902): App\Controllers\Home->listaGrupos()
 7 SYSTEMPATH/CodeIgniter.php(457): CodeIgniter\CodeIgniter->runController()
 8 SYSTEMPATH/CodeIgniter.php(340): CodeIgniter\CodeIgniter->handleRequest()
 9 FCPATH/index.php(67): CodeIgniter\CodeIgniter->run()
ERROR - 2022-11-08 02:35:29 --> Error connecting to the database: mysqli_sql_exception: Access denied for user 'vicent'@'localhost' (using password: YES) in /datos/usuarios/alumnos/a023942078k/lampstack-8.1.11-0/frameworks/codeigniter/system/Database/MySQLi/Connection.php:171
Stack trace:
#0 /datos/usuarios/alumnos/a023942078k/lampstack-8.1.11-0/frameworks/codeigniter/system/Database/MySQLi/Connection.php(171): mysqli->real_connect()
#1 /datos/usuarios/alumnos/a023942078k/lampstack-8.1.11-0/frameworks/codeigniter/system/Database/BaseConnection.php(382): CodeIgniter\Database\MySQLi\Connection->connect()
#2 /datos/usuarios/alumnos/a023942078k/lampstack-8.1.11-0/frameworks/codeigniter/system/Database/BaseConnection.php(588): CodeIgniter\Database\BaseConnection->initialize()
#3 /datos/usuarios/alumnos/a023942078k/lampstack-8.1.11-0/frameworks/codeigniter/system/Database/BaseBuilder.php(1585): CodeIgniter\Database\BaseConnection->query()
#4 /datos/usuarios/alumnos/a023942078k/lampstack-8.1.11-0/frameworks/codeigniter/system/Model.php(223): CodeIgniter\Database\BaseBuilder->get()
#5 /datos/usuarios/alumnos/a023942078k/lampstack-8.1.11-0/frameworks/codeigniter/system/BaseModel.php(584): CodeIgniter\Model->doFindAll()
#6 /datos/usuarios/alumnos/a023942078k/lampstack-8.1.11-0/frameworks/codeigniter/app/Controllers/Home.php(90): CodeIgniter\BaseModel->findAll()
#7 /datos/usuarios/alumnos/a023942078k/lampstack-8.1.11-0/frameworks/codeigniter/system/CodeIgniter.php(902): App\Controllers\Home->listaGrupos()
#8 /datos/usuarios/alumnos/a023942078k/lampstack-8.1.11-0/frameworks/codeigniter/system/CodeIgniter.php(457): CodeIgniter\CodeIgniter->runController()
#9 /datos/usuarios/alumnos/a023942078k/lampstack-8.1.11-0/frameworks/codeigniter/system/CodeIgniter.php(340): CodeIgniter\CodeIgniter->handleRequest()
#10 /datos/usuarios/alumnos/a023942078k/lampstack-8.1.11-0/frameworks/codeigniter/public/index.php(67): CodeIgniter\CodeIgniter->run()
#11 {main}

Next CodeIgniter\Database\Exceptions\DatabaseException: Access denied for user '****'@'localhost' (using password: YES) in /datos/usuarios/alumnos/a023942078k/lampstack-8.1.11-0/frameworks/codeigniter/system/Database/MySQLi/Connection.php:215
Stack trace:
#0 /datos/usuarios/alumnos/a023942078k/lampstack-8.1.11-0/frameworks/codeigniter/system/Database/BaseConnection.php(382): CodeIgniter\Database\MySQLi\Connection->connect()
#1 /datos/usuarios/alumnos/a023942078k/lampstack-8.1.11-0/frameworks/codeigniter/system/Database/BaseConnection.php(588): CodeIgniter\Database\BaseConnection->initialize()
#2 /datos/usuarios/alumnos/a023942078k/lampstack-8.1.11-0/frameworks/codeigniter/system/Database/BaseBuilder.php(1585): CodeIgniter\Database\BaseConnection->query()
#3 /datos/usuarios/alumnos/a023942078k/lampstack-8.1.11-0/frameworks/codeigniter/system/Model.php(223): CodeIgniter\Database\BaseBuilder->get()
#4 /datos/usuarios/alumnos/a023942078k/lampstack-8.1.11-0/frameworks/codeigniter/system/BaseModel.php(584): CodeIgniter\Model->doFindAll()
#5 /datos/usuarios/alumnos/a023942078k/lampstack-8.1.11-0/frameworks/codeigniter/app/Controllers/Home.php(90): CodeIgniter\BaseModel->findAll()
#6 /datos/usuarios/alumnos/a023942078k/lampstack-8.1.11-0/frameworks/codeigniter/system/CodeIgniter.php(902): App\Controllers\Home->listaGrupos()
#7 /datos/usuarios/alumnos/a023942078k/lampstack-8.1.11-0/frameworks/codeigniter/system/CodeIgniter.php(457): CodeIgniter\CodeIgniter->runController()
#8 /datos/usuarios/alumnos/a023942078k/lampstack-8.1.11-0/frameworks/codeigniter/system/CodeIgniter.php(340): CodeIgniter\CodeIgniter->handleRequest()
#9 /datos/usuarios/alumnos/a023942078k/lampstack-8.1.11-0/frameworks/codeigniter/public/index.php(67): CodeIgniter\CodeIgniter->run()
#10 {main}
CRITICAL - 2022-11-08 02:35:29 --> Unable to connect to the database.
Main connection [MySQLi]: Access denied for user '****'@'localhost' (using password: YES)
in SYSTEMPATH/Database/BaseConnection.php on line 418.
 1 SYSTEMPATH/Database/BaseConnection.php(588): CodeIgniter\Database\BaseConnection->initialize()
 2 SYSTEMPATH/Database/BaseBuilder.php(1585): CodeIgniter\Database\BaseConnection->query()
 3 SYSTEMPATH/Model.php(223): CodeIgniter\Database\BaseBuilder->get()
 4 SYSTEMPATH/BaseModel.php(584): CodeIgniter\Model->doFindAll()
 5 APPPATH/Controllers/Home.php(90): CodeIgniter\BaseModel->findAll()
 6 SYSTEMPATH/CodeIgniter.php(902): App\Controllers\Home->listaGrupos()
 7 SYSTEMPATH/CodeIgniter.php(457): CodeIgniter\CodeIgniter->runController()
 8 SYSTEMPATH/CodeIgniter.php(340): CodeIgniter\CodeIgniter->handleRequest()
 9 FCPATH/index.php(67): CodeIgniter\CodeIgniter->run()
ERROR - 2022-11-08 02:35:30 --> Error connecting to the database: mysqli_sql_exception: Access denied for user 'vicent'@'localhost' (using password: YES) in /datos/usuarios/alumnos/a023942078k/lampstack-8.1.11-0/frameworks/codeigniter/system/Database/MySQLi/Connection.php:171
Stack trace:
#0 /datos/usuarios/alumnos/a023942078k/lampstack-8.1.11-0/frameworks/codeigniter/system/Database/MySQLi/Connection.php(171): mysqli->real_connect()
#1 /datos/usuarios/alumnos/a023942078k/lampstack-8.1.11-0/frameworks/codeigniter/system/Database/BaseConnection.php(382): CodeIgniter\Database\MySQLi\Connection->connect()
#2 /datos/usuarios/alumnos/a023942078k/lampstack-8.1.11-0/frameworks/codeigniter/system/Database/BaseConnection.php(588): CodeIgniter\Database\BaseConnection->initialize()
#3 /datos/usuarios/alumnos/a023942078k/lampstack-8.1.11-0/frameworks/codeigniter/system/Database/BaseBuilder.php(1585): CodeIgniter\Database\BaseConnection->query()
#4 /datos/usuarios/alumnos/a023942078k/lampstack-8.1.11-0/frameworks/codeigniter/system/Model.php(223): CodeIgniter\Database\BaseBuilder->get()
#5 /datos/usuarios/alumnos/a023942078k/lampstack-8.1.11-0/frameworks/codeigniter/system/BaseModel.php(584): CodeIgniter\Model->doFindAll()
#6 /datos/usuarios/alumnos/a023942078k/lampstack-8.1.11-0/frameworks/codeigniter/app/Controllers/Home.php(90): CodeIgniter\BaseModel->findAll()
#7 /datos/usuarios/alumnos/a023942078k/lampstack-8.1.11-0/frameworks/codeigniter/system/CodeIgniter.php(902): App\Controllers\Home->listaGrupos()
#8 /datos/usuarios/alumnos/a023942078k/lampstack-8.1.11-0/frameworks/codeigniter/system/CodeIgniter.php(457): CodeIgniter\CodeIgniter->runController()
#9 /datos/usuarios/alumnos/a023942078k/lampstack-8.1.11-0/frameworks/codeigniter/system/CodeIgniter.php(340): CodeIgniter\CodeIgniter->handleRequest()
#10 /datos/usuarios/alumnos/a023942078k/lampstack-8.1.11-0/frameworks/codeigniter/public/index.php(67): CodeIgniter\CodeIgniter->run()
#11 {main}

Next CodeIgniter\Database\Exceptions\DatabaseException: Access denied for user '****'@'localhost' (using password: YES) in /datos/usuarios/alumnos/a023942078k/lampstack-8.1.11-0/frameworks/codeigniter/system/Database/MySQLi/Connection.php:215
Stack trace:
#0 /datos/usuarios/alumnos/a023942078k/lampstack-8.1.11-0/frameworks/codeigniter/system/Database/BaseConnection.php(382): CodeIgniter\Database\MySQLi\Connection->connect()
#1 /datos/usuarios/alumnos/a023942078k/lampstack-8.1.11-0/frameworks/codeigniter/system/Database/BaseConnection.php(588): CodeIgniter\Database\BaseConnection->initialize()
#2 /datos/usuarios/alumnos/a023942078k/lampstack-8.1.11-0/frameworks/codeigniter/system/Database/BaseBuilder.php(1585): CodeIgniter\Database\BaseConnection->query()
#3 /datos/usuarios/alumnos/a023942078k/lampstack-8.1.11-0/frameworks/codeigniter/system/Model.php(223): CodeIgniter\Database\BaseBuilder->get()
#4 /datos/usuarios/alumnos/a023942078k/lampstack-8.1.11-0/frameworks/codeigniter/system/BaseModel.php(584): CodeIgniter\Model->doFindAll()
#5 /datos/usuarios/alumnos/a023942078k/lampstack-8.1.11-0/frameworks/codeigniter/app/Controllers/Home.php(90): CodeIgniter\BaseModel->findAll()
#6 /datos/usuarios/alumnos/a023942078k/lampstack-8.1.11-0/frameworks/codeigniter/system/CodeIgniter.php(902): App\Controllers\Home->listaGrupos()
#7 /datos/usuarios/alumnos/a023942078k/lampstack-8.1.11-0/frameworks/codeigniter/system/CodeIgniter.php(457): CodeIgniter\CodeIgniter->runController()
#8 /datos/usuarios/alumnos/a023942078k/lampstack-8.1.11-0/frameworks/codeigniter/system/CodeIgniter.php(340): CodeIgniter\CodeIgniter->handleRequest()
#9 /datos/usuarios/alumnos/a023942078k/lampstack-8.1.11-0/frameworks/codeigniter/public/index.php(67): CodeIgniter\CodeIgniter->run()
#10 {main}
CRITICAL - 2022-11-08 02:35:30 --> Unable to connect to the database.
Main connection [MySQLi]: Access denied for user '****'@'localhost' (using password: YES)
in SYSTEMPATH/Database/BaseConnection.php on line 418.
 1 SYSTEMPATH/Database/BaseConnection.php(588): CodeIgniter\Database\BaseConnection->initialize()
 2 SYSTEMPATH/Database/BaseBuilder.php(1585): CodeIgniter\Database\BaseConnection->query()
 3 SYSTEMPATH/Model.php(223): CodeIgniter\Database\BaseBuilder->get()
 4 SYSTEMPATH/BaseModel.php(584): CodeIgniter\Model->doFindAll()
 5 APPPATH/Controllers/Home.php(90): CodeIgniter\BaseModel->findAll()
 6 SYSTEMPATH/CodeIgniter.php(902): App\Controllers\Home->listaGrupos()
 7 SYSTEMPATH/CodeIgniter.php(457): CodeIgniter\CodeIgniter->runController()
 8 SYSTEMPATH/CodeIgniter.php(340): CodeIgniter\CodeIgniter->handleRequest()
 9 FCPATH/index.php(67): CodeIgniter\CodeIgniter->run()
ERROR - 2022-11-08 02:35:30 --> Error connecting to the database: mysqli_sql_exception: Access denied for user 'vicent'@'localhost' (using password: YES) in /datos/usuarios/alumnos/a023942078k/lampstack-8.1.11-0/frameworks/codeigniter/system/Database/MySQLi/Connection.php:171
Stack trace:
#0 /datos/usuarios/alumnos/a023942078k/lampstack-8.1.11-0/frameworks/codeigniter/system/Database/MySQLi/Connection.php(171): mysqli->real_connect()
#1 /datos/usuarios/alumnos/a023942078k/lampstack-8.1.11-0/frameworks/codeigniter/system/Database/BaseConnection.php(382): CodeIgniter\Database\MySQLi\Connection->connect()
#2 /datos/usuarios/alumnos/a023942078k/lampstack-8.1.11-0/frameworks/codeigniter/system/Database/BaseConnection.php(588): CodeIgniter\Database\BaseConnection->initialize()
#3 /datos/usuarios/alumnos/a023942078k/lampstack-8.1.11-0/frameworks/codeigniter/system/Database/BaseBuilder.php(1585): CodeIgniter\Database\BaseConnection->query()
#4 /datos/usuarios/alumnos/a023942078k/lampstack-8.1.11-0/frameworks/codeigniter/system/Model.php(223): CodeIgniter\Database\BaseBuilder->get()
#5 /datos/usuarios/alumnos/a023942078k/lampstack-8.1.11-0/frameworks/codeigniter/system/BaseModel.php(584): CodeIgniter\Model->doFindAll()
#6 /datos/usuarios/alumnos/a023942078k/lampstack-8.1.11-0/frameworks/codeigniter/app/Controllers/Home.php(90): CodeIgniter\BaseModel->findAll()
#7 /datos/usuarios/alumnos/a023942078k/lampstack-8.1.11-0/frameworks/codeigniter/system/CodeIgniter.php(902): App\Controllers\Home->listaGrupos()
#8 /datos/usuarios/alumnos/a023942078k/lampstack-8.1.11-0/frameworks/codeigniter/system/CodeIgniter.php(457): CodeIgniter\CodeIgniter->runController()
#9 /datos/usuarios/alumnos/a023942078k/lampstack-8.1.11-0/frameworks/codeigniter/system/CodeIgniter.php(340): CodeIgniter\CodeIgniter->handleRequest()
#10 /datos/usuarios/alumnos/a023942078k/lampstack-8.1.11-0/frameworks/codeigniter/public/index.php(67): CodeIgniter\CodeIgniter->run()
#11 {main}

Next CodeIgniter\Database\Exceptions\DatabaseException: Access denied for user '****'@'localhost' (using password: YES) in /datos/usuarios/alumnos/a023942078k/lampstack-8.1.11-0/frameworks/codeigniter/system/Database/MySQLi/Connection.php:215
Stack trace:
#0 /datos/usuarios/alumnos/a023942078k/lampstack-8.1.11-0/frameworks/codeigniter/system/Database/BaseConnection.php(382): CodeIgniter\Database\MySQLi\Connection->connect()
#1 /datos/usuarios/alumnos/a023942078k/lampstack-8.1.11-0/frameworks/codeigniter/system/Database/BaseConnection.php(588): CodeIgniter\Database\BaseConnection->initialize()
#2 /datos/usuarios/alumnos/a023942078k/lampstack-8.1.11-0/frameworks/codeigniter/system/Database/BaseBuilder.php(1585): CodeIgniter\Database\BaseConnection->query()
#3 /datos/usuarios/alumnos/a023942078k/lampstack-8.1.11-0/frameworks/codeigniter/system/Model.php(223): CodeIgniter\Database\BaseBuilder->get()
#4 /datos/usuarios/alumnos/a023942078k/lampstack-8.1.11-0/frameworks/codeigniter/system/BaseModel.php(584): CodeIgniter\Model->doFindAll()
#5 /datos/usuarios/alumnos/a023942078k/lampstack-8.1.11-0/frameworks/codeigniter/app/Controllers/Home.php(90): CodeIgniter\BaseModel->findAll()
#6 /datos/usuarios/alumnos/a023942078k/lampstack-8.1.11-0/frameworks/codeigniter/system/CodeIgniter.php(902): App\Controllers\Home->listaGrupos()
#7 /datos/usuarios/alumnos/a023942078k/lampstack-8.1.11-0/frameworks/codeigniter/system/CodeIgniter.php(457): CodeIgniter\CodeIgniter->runController()
#8 /datos/usuarios/alumnos/a023942078k/lampstack-8.1.11-0/frameworks/codeigniter/system/CodeIgniter.php(340): CodeIgniter\CodeIgniter->handleRequest()
#9 /datos/usuarios/alumnos/a023942078k/lampstack-8.1.11-0/frameworks/codeigniter/public/index.php(67): CodeIgniter\CodeIgniter->run()
#10 {main}
CRITICAL - 2022-11-08 02:35:30 --> Unable to connect to the database.
Main connection [MySQLi]: Access denied for user '****'@'localhost' (using password: YES)
in SYSTEMPATH/Database/BaseConnection.php on line 418.
 1 SYSTEMPATH/Database/BaseConnection.php(588): CodeIgniter\Database\BaseConnection->initialize()
 2 SYSTEMPATH/Database/BaseBuilder.php(1585): CodeIgniter\Database\BaseConnection->query()
 3 SYSTEMPATH/Model.php(223): CodeIgniter\Database\BaseBuilder->get()
 4 SYSTEMPATH/BaseModel.php(584): CodeIgniter\Model->doFindAll()
 5 APPPATH/Controllers/Home.php(90): CodeIgniter\BaseModel->findAll()
 6 SYSTEMPATH/CodeIgniter.php(902): App\Controllers\Home->listaGrupos()
 7 SYSTEMPATH/CodeIgniter.php(457): CodeIgniter\CodeIgniter->runController()
 8 SYSTEMPATH/CodeIgniter.php(340): CodeIgniter\CodeIgniter->handleRequest()
 9 FCPATH/index.php(67): CodeIgniter\CodeIgniter->run()
ERROR - 2022-11-08 02:35:30 --> Error connecting to the database: mysqli_sql_exception: Access denied for user 'vicent'@'localhost' (using password: YES) in /datos/usuarios/alumnos/a023942078k/lampstack-8.1.11-0/frameworks/codeigniter/system/Database/MySQLi/Connection.php:171
Stack trace:
#0 /datos/usuarios/alumnos/a023942078k/lampstack-8.1.11-0/frameworks/codeigniter/system/Database/MySQLi/Connection.php(171): mysqli->real_connect()
#1 /datos/usuarios/alumnos/a023942078k/lampstack-8.1.11-0/frameworks/codeigniter/system/Database/BaseConnection.php(382): CodeIgniter\Database\MySQLi\Connection->connect()
#2 /datos/usuarios/alumnos/a023942078k/lampstack-8.1.11-0/frameworks/codeigniter/system/Database/BaseConnection.php(588): CodeIgniter\Database\BaseConnection->initialize()
#3 /datos/usuarios/alumnos/a023942078k/lampstack-8.1.11-0/frameworks/codeigniter/system/Database/BaseBuilder.php(1585): CodeIgniter\Database\BaseConnection->query()
#4 /datos/usuarios/alumnos/a023942078k/lampstack-8.1.11-0/frameworks/codeigniter/system/Model.php(223): CodeIgniter\Database\BaseBuilder->get()
#5 /datos/usuarios/alumnos/a023942078k/lampstack-8.1.11-0/frameworks/codeigniter/system/BaseModel.php(584): CodeIgniter\Model->doFindAll()
#6 /datos/usuarios/alumnos/a023942078k/lampstack-8.1.11-0/frameworks/codeigniter/app/Controllers/Home.php(90): CodeIgniter\BaseModel->findAll()
#7 /datos/usuarios/alumnos/a023942078k/lampstack-8.1.11-0/frameworks/codeigniter/system/CodeIgniter.php(902): App\Controllers\Home->listaGrupos()
#8 /datos/usuarios/alumnos/a023942078k/lampstack-8.1.11-0/frameworks/codeigniter/system/CodeIgniter.php(457): CodeIgniter\CodeIgniter->runController()
#9 /datos/usuarios/alumnos/a023942078k/lampstack-8.1.11-0/frameworks/codeigniter/system/CodeIgniter.php(340): CodeIgniter\CodeIgniter->handleRequest()
#10 /datos/usuarios/alumnos/a023942078k/lampstack-8.1.11-0/frameworks/codeigniter/public/index.php(67): CodeIgniter\CodeIgniter->run()
#11 {main}

Next CodeIgniter\Database\Exceptions\DatabaseException: Access denied for user '****'@'localhost' (using password: YES) in /datos/usuarios/alumnos/a023942078k/lampstack-8.1.11-0/frameworks/codeigniter/system/Database/MySQLi/Connection.php:215
Stack trace:
#0 /datos/usuarios/alumnos/a023942078k/lampstack-8.1.11-0/frameworks/codeigniter/system/Database/BaseConnection.php(382): CodeIgniter\Database\MySQLi\Connection->connect()
#1 /datos/usuarios/alumnos/a023942078k/lampstack-8.1.11-0/frameworks/codeigniter/system/Database/BaseConnection.php(588): CodeIgniter\Database\BaseConnection->initialize()
#2 /datos/usuarios/alumnos/a023942078k/lampstack-8.1.11-0/frameworks/codeigniter/system/Database/BaseBuilder.php(1585): CodeIgniter\Database\BaseConnection->query()
#3 /datos/usuarios/alumnos/a023942078k/lampstack-8.1.11-0/frameworks/codeigniter/system/Model.php(223): CodeIgniter\Database\BaseBuilder->get()
#4 /datos/usuarios/alumnos/a023942078k/lampstack-8.1.11-0/frameworks/codeigniter/system/BaseModel.php(584): CodeIgniter\Model->doFindAll()
#5 /datos/usuarios/alumnos/a023942078k/lampstack-8.1.11-0/frameworks/codeigniter/app/Controllers/Home.php(90): CodeIgniter\BaseModel->findAll()
#6 /datos/usuarios/alumnos/a023942078k/lampstack-8.1.11-0/frameworks/codeigniter/system/CodeIgniter.php(902): App\Controllers\Home->listaGrupos()
#7 /datos/usuarios/alumnos/a023942078k/lampstack-8.1.11-0/frameworks/codeigniter/system/CodeIgniter.php(457): CodeIgniter\CodeIgniter->runController()
#8 /datos/usuarios/alumnos/a023942078k/lampstack-8.1.11-0/frameworks/codeigniter/system/CodeIgniter.php(340): CodeIgniter\CodeIgniter->handleRequest()
#9 /datos/usuarios/alumnos/a023942078k/lampstack-8.1.11-0/frameworks/codeigniter/public/index.php(67): CodeIgniter\CodeIgniter->run()
#10 {main}
CRITICAL - 2022-11-08 02:35:30 --> Unable to connect to the database.
Main connection [MySQLi]: Access denied for user '****'@'localhost' (using password: YES)
in SYSTEMPATH/Database/BaseConnection.php on line 418.
 1 SYSTEMPATH/Database/BaseConnection.php(588): CodeIgniter\Database\BaseConnection->initialize()
 2 SYSTEMPATH/Database/BaseBuilder.php(1585): CodeIgniter\Database\BaseConnection->query()
 3 SYSTEMPATH/Model.php(223): CodeIgniter\Database\BaseBuilder->get()
 4 SYSTEMPATH/BaseModel.php(584): CodeIgniter\Model->doFindAll()
 5 APPPATH/Controllers/Home.php(90): CodeIgniter\BaseModel->findAll()
 6 SYSTEMPATH/CodeIgniter.php(902): App\Controllers\Home->listaGrupos()
 7 SYSTEMPATH/CodeIgniter.php(457): CodeIgniter\CodeIgniter->runController()
 8 SYSTEMPATH/CodeIgniter.php(340): CodeIgniter\CodeIgniter->handleRequest()
 9 FCPATH/index.php(67): CodeIgniter\CodeIgniter->run()
ERROR - 2022-11-08 02:35:30 --> Error connecting to the database: mysqli_sql_exception: Access denied for user 'vicent'@'localhost' (using password: YES) in /datos/usuarios/alumnos/a023942078k/lampstack-8.1.11-0/frameworks/codeigniter/system/Database/MySQLi/Connection.php:171
Stack trace:
#0 /datos/usuarios/alumnos/a023942078k/lampstack-8.1.11-0/frameworks/codeigniter/system/Database/MySQLi/Connection.php(171): mysqli->real_connect()
#1 /datos/usuarios/alumnos/a023942078k/lampstack-8.1.11-0/frameworks/codeigniter/system/Database/BaseConnection.php(382): CodeIgniter\Database\MySQLi\Connection->connect()
#2 /datos/usuarios/alumnos/a023942078k/lampstack-8.1.11-0/frameworks/codeigniter/system/Database/BaseConnection.php(588): CodeIgniter\Database\BaseConnection->initialize()
#3 /datos/usuarios/alumnos/a023942078k/lampstack-8.1.11-0/frameworks/codeigniter/system/Database/BaseBuilder.php(1585): CodeIgniter\Database\BaseConnection->query()
#4 /datos/usuarios/alumnos/a023942078k/lampstack-8.1.11-0/frameworks/codeigniter/system/Model.php(223): CodeIgniter\Database\BaseBuilder->get()
#5 /datos/usuarios/alumnos/a023942078k/lampstack-8.1.11-0/frameworks/codeigniter/system/BaseModel.php(584): CodeIgniter\Model->doFindAll()
#6 /datos/usuarios/alumnos/a023942078k/lampstack-8.1.11-0/frameworks/codeigniter/app/Controllers/Home.php(90): CodeIgniter\BaseModel->findAll()
#7 /datos/usuarios/alumnos/a023942078k/lampstack-8.1.11-0/frameworks/codeigniter/system/CodeIgniter.php(902): App\Controllers\Home->listaGrupos()
#8 /datos/usuarios/alumnos/a023942078k/lampstack-8.1.11-0/frameworks/codeigniter/system/CodeIgniter.php(457): CodeIgniter\CodeIgniter->runController()
#9 /datos/usuarios/alumnos/a023942078k/lampstack-8.1.11-0/frameworks/codeigniter/system/CodeIgniter.php(340): CodeIgniter\CodeIgniter->handleRequest()
#10 /datos/usuarios/alumnos/a023942078k/lampstack-8.1.11-0/frameworks/codeigniter/public/index.php(67): CodeIgniter\CodeIgniter->run()
#11 {main}

Next CodeIgniter\Database\Exceptions\DatabaseException: Access denied for user '****'@'localhost' (using password: YES) in /datos/usuarios/alumnos/a023942078k/lampstack-8.1.11-0/frameworks/codeigniter/system/Database/MySQLi/Connection.php:215
Stack trace:
#0 /datos/usuarios/alumnos/a023942078k/lampstack-8.1.11-0/frameworks/codeigniter/system/Database/BaseConnection.php(382): CodeIgniter\Database\MySQLi\Connection->connect()
#1 /datos/usuarios/alumnos/a023942078k/lampstack-8.1.11-0/frameworks/codeigniter/system/Database/BaseConnection.php(588): CodeIgniter\Database\BaseConnection->initialize()
#2 /datos/usuarios/alumnos/a023942078k/lampstack-8.1.11-0/frameworks/codeigniter/system/Database/BaseBuilder.php(1585): CodeIgniter\Database\BaseConnection->query()
#3 /datos/usuarios/alumnos/a023942078k/lampstack-8.1.11-0/frameworks/codeigniter/system/Model.php(223): CodeIgniter\Database\BaseBuilder->get()
#4 /datos/usuarios/alumnos/a023942078k/lampstack-8.1.11-0/frameworks/codeigniter/system/BaseModel.php(584): CodeIgniter\Model->doFindAll()
#5 /datos/usuarios/alumnos/a023942078k/lampstack-8.1.11-0/frameworks/codeigniter/app/Controllers/Home.php(90): CodeIgniter\BaseModel->findAll()
#6 /datos/usuarios/alumnos/a023942078k/lampstack-8.1.11-0/frameworks/codeigniter/system/CodeIgniter.php(902): App\Controllers\Home->listaGrupos()
#7 /datos/usuarios/alumnos/a023942078k/lampstack-8.1.11-0/frameworks/codeigniter/system/CodeIgniter.php(457): CodeIgniter\CodeIgniter->runController()
#8 /datos/usuarios/alumnos/a023942078k/lampstack-8.1.11-0/frameworks/codeigniter/system/CodeIgniter.php(340): CodeIgniter\CodeIgniter->handleRequest()
#9 /datos/usuarios/alumnos/a023942078k/lampstack-8.1.11-0/frameworks/codeigniter/public/index.php(67): CodeIgniter\CodeIgniter->run()
#10 {main}
CRITICAL - 2022-11-08 02:35:30 --> Unable to connect to the database.
Main connection [MySQLi]: Access denied for user '****'@'localhost' (using password: YES)
in SYSTEMPATH/Database/BaseConnection.php on line 418.
 1 SYSTEMPATH/Database/BaseConnection.php(588): CodeIgniter\Database\BaseConnection->initialize()
 2 SYSTEMPATH/Database/BaseBuilder.php(1585): CodeIgniter\Database\BaseConnection->query()
 3 SYSTEMPATH/Model.php(223): CodeIgniter\Database\BaseBuilder->get()
 4 SYSTEMPATH/BaseModel.php(584): CodeIgniter\Model->doFindAll()
 5 APPPATH/Controllers/Home.php(90): CodeIgniter\BaseModel->findAll()
 6 SYSTEMPATH/CodeIgniter.php(902): App\Controllers\Home->listaGrupos()
 7 SYSTEMPATH/CodeIgniter.php(457): CodeIgniter\CodeIgniter->runController()
 8 SYSTEMPATH/CodeIgniter.php(340): CodeIgniter\CodeIgniter->handleRequest()
 9 FCPATH/index.php(67): CodeIgniter\CodeIgniter->run()
ERROR - 2022-11-08 02:35:30 --> Error connecting to the database: mysqli_sql_exception: Access denied for user 'vicent'@'localhost' (using password: YES) in /datos/usuarios/alumnos/a023942078k/lampstack-8.1.11-0/frameworks/codeigniter/system/Database/MySQLi/Connection.php:171
Stack trace:
#0 /datos/usuarios/alumnos/a023942078k/lampstack-8.1.11-0/frameworks/codeigniter/system/Database/MySQLi/Connection.php(171): mysqli->real_connect()
#1 /datos/usuarios/alumnos/a023942078k/lampstack-8.1.11-0/frameworks/codeigniter/system/Database/BaseConnection.php(382): CodeIgniter\Database\MySQLi\Connection->connect()
#2 /datos/usuarios/alumnos/a023942078k/lampstack-8.1.11-0/frameworks/codeigniter/system/Database/BaseConnection.php(588): CodeIgniter\Database\BaseConnection->initialize()
#3 /datos/usuarios/alumnos/a023942078k/lampstack-8.1.11-0/frameworks/codeigniter/system/Database/BaseBuilder.php(1585): CodeIgniter\Database\BaseConnection->query()
#4 /datos/usuarios/alumnos/a023942078k/lampstack-8.1.11-0/frameworks/codeigniter/system/Model.php(223): CodeIgniter\Database\BaseBuilder->get()
#5 /datos/usuarios/alumnos/a023942078k/lampstack-8.1.11-0/frameworks/codeigniter/system/BaseModel.php(584): CodeIgniter\Model->doFindAll()
#6 /datos/usuarios/alumnos/a023942078k/lampstack-8.1.11-0/frameworks/codeigniter/app/Controllers/Home.php(90): CodeIgniter\BaseModel->findAll()
#7 /datos/usuarios/alumnos/a023942078k/lampstack-8.1.11-0/frameworks/codeigniter/system/CodeIgniter.php(902): App\Controllers\Home->listaGrupos()
#8 /datos/usuarios/alumnos/a023942078k/lampstack-8.1.11-0/frameworks/codeigniter/system/CodeIgniter.php(457): CodeIgniter\CodeIgniter->runController()
#9 /datos/usuarios/alumnos/a023942078k/lampstack-8.1.11-0/frameworks/codeigniter/system/CodeIgniter.php(340): CodeIgniter\CodeIgniter->handleRequest()
#10 /datos/usuarios/alumnos/a023942078k/lampstack-8.1.11-0/frameworks/codeigniter/public/index.php(67): CodeIgniter\CodeIgniter->run()
#11 {main}

Next CodeIgniter\Database\Exceptions\DatabaseException: Access denied for user '****'@'localhost' (using password: YES) in /datos/usuarios/alumnos/a023942078k/lampstack-8.1.11-0/frameworks/codeigniter/system/Database/MySQLi/Connection.php:215
Stack trace:
#0 /datos/usuarios/alumnos/a023942078k/lampstack-8.1.11-0/frameworks/codeigniter/system/Database/BaseConnection.php(382): CodeIgniter\Database\MySQLi\Connection->connect()
#1 /datos/usuarios/alumnos/a023942078k/lampstack-8.1.11-0/frameworks/codeigniter/system/Database/BaseConnection.php(588): CodeIgniter\Database\BaseConnection->initialize()
#2 /datos/usuarios/alumnos/a023942078k/lampstack-8.1.11-0/frameworks/codeigniter/system/Database/BaseBuilder.php(1585): CodeIgniter\Database\BaseConnection->query()
#3 /datos/usuarios/alumnos/a023942078k/lampstack-8.1.11-0/frameworks/codeigniter/system/Model.php(223): CodeIgniter\Database\BaseBuilder->get()
#4 /datos/usuarios/alumnos/a023942078k/lampstack-8.1.11-0/frameworks/codeigniter/system/BaseModel.php(584): CodeIgniter\Model->doFindAll()
#5 /datos/usuarios/alumnos/a023942078k/lampstack-8.1.11-0/frameworks/codeigniter/app/Controllers/Home.php(90): CodeIgniter\BaseModel->findAll()
#6 /datos/usuarios/alumnos/a023942078k/lampstack-8.1.11-0/frameworks/codeigniter/system/CodeIgniter.php(902): App\Controllers\Home->listaGrupos()
#7 /datos/usuarios/alumnos/a023942078k/lampstack-8.1.11-0/frameworks/codeigniter/system/CodeIgniter.php(457): CodeIgniter\CodeIgniter->runController()
#8 /datos/usuarios/alumnos/a023942078k/lampstack-8.1.11-0/frameworks/codeigniter/system/CodeIgniter.php(340): CodeIgniter\CodeIgniter->handleRequest()
#9 /datos/usuarios/alumnos/a023942078k/lampstack-8.1.11-0/frameworks/codeigniter/public/index.php(67): CodeIgniter\CodeIgniter->run()
#10 {main}
CRITICAL - 2022-11-08 02:35:30 --> Unable to connect to the database.
Main connection [MySQLi]: Access denied for user '****'@'localhost' (using password: YES)
in SYSTEMPATH/Database/BaseConnection.php on line 418.
 1 SYSTEMPATH/Database/BaseConnection.php(588): CodeIgniter\Database\BaseConnection->initialize()
 2 SYSTEMPATH/Database/BaseBuilder.php(1585): CodeIgniter\Database\BaseConnection->query()
 3 SYSTEMPATH/Model.php(223): CodeIgniter\Database\BaseBuilder->get()
 4 SYSTEMPATH/BaseModel.php(584): CodeIgniter\Model->doFindAll()
 5 APPPATH/Controllers/Home.php(90): CodeIgniter\BaseModel->findAll()
 6 SYSTEMPATH/CodeIgniter.php(902): App\Controllers\Home->listaGrupos()
 7 SYSTEMPATH/CodeIgniter.php(457): CodeIgniter\CodeIgniter->runController()
 8 SYSTEMPATH/CodeIgniter.php(340): CodeIgniter\CodeIgniter->handleRequest()
 9 FCPATH/index.php(67): CodeIgniter\CodeIgniter->run()
ERROR - 2022-11-08 02:35:30 --> Error connecting to the database: mysqli_sql_exception: Access denied for user 'vicent'@'localhost' (using password: YES) in /datos/usuarios/alumnos/a023942078k/lampstack-8.1.11-0/frameworks/codeigniter/system/Database/MySQLi/Connection.php:171
Stack trace:
#0 /datos/usuarios/alumnos/a023942078k/lampstack-8.1.11-0/frameworks/codeigniter/system/Database/MySQLi/Connection.php(171): mysqli->real_connect()
#1 /datos/usuarios/alumnos/a023942078k/lampstack-8.1.11-0/frameworks/codeigniter/system/Database/BaseConnection.php(382): CodeIgniter\Database\MySQLi\Connection->connect()
#2 /datos/usuarios/alumnos/a023942078k/lampstack-8.1.11-0/frameworks/codeigniter/system/Database/BaseConnection.php(588): CodeIgniter\Database\BaseConnection->initialize()
#3 /datos/usuarios/alumnos/a023942078k/lampstack-8.1.11-0/frameworks/codeigniter/system/Database/BaseBuilder.php(1585): CodeIgniter\Database\BaseConnection->query()
#4 /datos/usuarios/alumnos/a023942078k/lampstack-8.1.11-0/frameworks/codeigniter/system/Model.php(223): CodeIgniter\Database\BaseBuilder->get()
#5 /datos/usuarios/alumnos/a023942078k/lampstack-8.1.11-0/frameworks/codeigniter/system/BaseModel.php(584): CodeIgniter\Model->doFindAll()
#6 /datos/usuarios/alumnos/a023942078k/lampstack-8.1.11-0/frameworks/codeigniter/app/Controllers/Home.php(90): CodeIgniter\BaseModel->findAll()
#7 /datos/usuarios/alumnos/a023942078k/lampstack-8.1.11-0/frameworks/codeigniter/system/CodeIgniter.php(902): App\Controllers\Home->listaGrupos()
#8 /datos/usuarios/alumnos/a023942078k/lampstack-8.1.11-0/frameworks/codeigniter/system/CodeIgniter.php(457): CodeIgniter\CodeIgniter->runController()
#9 /datos/usuarios/alumnos/a023942078k/lampstack-8.1.11-0/frameworks/codeigniter/system/CodeIgniter.php(340): CodeIgniter\CodeIgniter->handleRequest()
#10 /datos/usuarios/alumnos/a023942078k/lampstack-8.1.11-0/frameworks/codeigniter/public/index.php(67): CodeIgniter\CodeIgniter->run()
#11 {main}

Next CodeIgniter\Database\Exceptions\DatabaseException: Access denied for user '****'@'localhost' (using password: YES) in /datos/usuarios/alumnos/a023942078k/lampstack-8.1.11-0/frameworks/codeigniter/system/Database/MySQLi/Connection.php:215
Stack trace:
#0 /datos/usuarios/alumnos/a023942078k/lampstack-8.1.11-0/frameworks/codeigniter/system/Database/BaseConnection.php(382): CodeIgniter\Database\MySQLi\Connection->connect()
#1 /datos/usuarios/alumnos/a023942078k/lampstack-8.1.11-0/frameworks/codeigniter/system/Database/BaseConnection.php(588): CodeIgniter\Database\BaseConnection->initialize()
#2 /datos/usuarios/alumnos/a023942078k/lampstack-8.1.11-0/frameworks/codeigniter/system/Database/BaseBuilder.php(1585): CodeIgniter\Database\BaseConnection->query()
#3 /datos/usuarios/alumnos/a023942078k/lampstack-8.1.11-0/frameworks/codeigniter/system/Model.php(223): CodeIgniter\Database\BaseBuilder->get()
#4 /datos/usuarios/alumnos/a023942078k/lampstack-8.1.11-0/frameworks/codeigniter/system/BaseModel.php(584): CodeIgniter\Model->doFindAll()
#5 /datos/usuarios/alumnos/a023942078k/lampstack-8.1.11-0/frameworks/codeigniter/app/Controllers/Home.php(90): CodeIgniter\BaseModel->findAll()
#6 /datos/usuarios/alumnos/a023942078k/lampstack-8.1.11-0/frameworks/codeigniter/system/CodeIgniter.php(902): App\Controllers\Home->listaGrupos()
#7 /datos/usuarios/alumnos/a023942078k/lampstack-8.1.11-0/frameworks/codeigniter/system/CodeIgniter.php(457): CodeIgniter\CodeIgniter->runController()
#8 /datos/usuarios/alumnos/a023942078k/lampstack-8.1.11-0/frameworks/codeigniter/system/CodeIgniter.php(340): CodeIgniter\CodeIgniter->handleRequest()
#9 /datos/usuarios/alumnos/a023942078k/lampstack-8.1.11-0/frameworks/codeigniter/public/index.php(67): CodeIgniter\CodeIgniter->run()
#10 {main}
CRITICAL - 2022-11-08 02:35:30 --> Unable to connect to the database.
Main connection [MySQLi]: Access denied for user '****'@'localhost' (using password: YES)
in SYSTEMPATH/Database/BaseConnection.php on line 418.
 1 SYSTEMPATH/Database/BaseConnection.php(588): CodeIgniter\Database\BaseConnection->initialize()
 2 SYSTEMPATH/Database/BaseBuilder.php(1585): CodeIgniter\Database\BaseConnection->query()
 3 SYSTEMPATH/Model.php(223): CodeIgniter\Database\BaseBuilder->get()
 4 SYSTEMPATH/BaseModel.php(584): CodeIgniter\Model->doFindAll()
 5 APPPATH/Controllers/Home.php(90): CodeIgniter\BaseModel->findAll()
 6 SYSTEMPATH/CodeIgniter.php(902): App\Controllers\Home->listaGrupos()
 7 SYSTEMPATH/CodeIgniter.php(457): CodeIgniter\CodeIgniter->runController()
 8 SYSTEMPATH/CodeIgniter.php(340): CodeIgniter\CodeIgniter->handleRequest()
 9 FCPATH/index.php(67): CodeIgniter\CodeIgniter->run()
ERROR - 2022-11-08 02:36:17 --> Error connecting to the database: mysqli_sql_exception: Access denied for user 'vicent'@'localhost' (using password: YES) in /datos/usuarios/alumnos/a023942078k/lampstack-8.1.11-0/frameworks/codeigniter/system/Database/MySQLi/Connection.php:171
Stack trace:
#0 /datos/usuarios/alumnos/a023942078k/lampstack-8.1.11-0/frameworks/codeigniter/system/Database/MySQLi/Connection.php(171): mysqli->real_connect()
#1 /datos/usuarios/alumnos/a023942078k/lampstack-8.1.11-0/frameworks/codeigniter/system/Database/BaseConnection.php(382): CodeIgniter\Database\MySQLi\Connection->connect()
#2 /datos/usuarios/alumnos/a023942078k/lampstack-8.1.11-0/frameworks/codeigniter/system/Database/BaseConnection.php(588): CodeIgniter\Database\BaseConnection->initialize()
#3 /datos/usuarios/alumnos/a023942078k/lampstack-8.1.11-0/frameworks/codeigniter/system/Database/BaseBuilder.php(1585): CodeIgniter\Database\BaseConnection->query()
#4 /datos/usuarios/alumnos/a023942078k/lampstack-8.1.11-0/frameworks/codeigniter/system/Model.php(223): CodeIgniter\Database\BaseBuilder->get()
#5 /datos/usuarios/alumnos/a023942078k/lampstack-8.1.11-0/frameworks/codeigniter/system/BaseModel.php(584): CodeIgniter\Model->doFindAll()
#6 /datos/usuarios/alumnos/a023942078k/lampstack-8.1.11-0/frameworks/codeigniter/app/Controllers/Home.php(90): CodeIgniter\BaseModel->findAll()
#7 /datos/usuarios/alumnos/a023942078k/lampstack-8.1.11-0/frameworks/codeigniter/system/CodeIgniter.php(902): App\Controllers\Home->listaGrupos()
#8 /datos/usuarios/alumnos/a023942078k/lampstack-8.1.11-0/frameworks/codeigniter/system/CodeIgniter.php(457): CodeIgniter\CodeIgniter->runController()
#9 /datos/usuarios/alumnos/a023942078k/lampstack-8.1.11-0/frameworks/codeigniter/system/CodeIgniter.php(340): CodeIgniter\CodeIgniter->handleRequest()
#10 /datos/usuarios/alumnos/a023942078k/lampstack-8.1.11-0/frameworks/codeigniter/public/index.php(67): CodeIgniter\CodeIgniter->run()
#11 {main}

Next CodeIgniter\Database\Exceptions\DatabaseException: Access denied for user '****'@'localhost' (using password: YES) in /datos/usuarios/alumnos/a023942078k/lampstack-8.1.11-0/frameworks/codeigniter/system/Database/MySQLi/Connection.php:215
Stack trace:
#0 /datos/usuarios/alumnos/a023942078k/lampstack-8.1.11-0/frameworks/codeigniter/system/Database/BaseConnection.php(382): CodeIgniter\Database\MySQLi\Connection->connect()
#1 /datos/usuarios/alumnos/a023942078k/lampstack-8.1.11-0/frameworks/codeigniter/system/Database/BaseConnection.php(588): CodeIgniter\Database\BaseConnection->initialize()
#2 /datos/usuarios/alumnos/a023942078k/lampstack-8.1.11-0/frameworks/codeigniter/system/Database/BaseBuilder.php(1585): CodeIgniter\Database\BaseConnection->query()
#3 /datos/usuarios/alumnos/a023942078k/lampstack-8.1.11-0/frameworks/codeigniter/system/Model.php(223): CodeIgniter\Database\BaseBuilder->get()
#4 /datos/usuarios/alumnos/a023942078k/lampstack-8.1.11-0/frameworks/codeigniter/system/BaseModel.php(584): CodeIgniter\Model->doFindAll()
#5 /datos/usuarios/alumnos/a023942078k/lampstack-8.1.11-0/frameworks/codeigniter/app/Controllers/Home.php(90): CodeIgniter\BaseModel->findAll()
#6 /datos/usuarios/alumnos/a023942078k/lampstack-8.1.11-0/frameworks/codeigniter/system/CodeIgniter.php(902): App\Controllers\Home->listaGrupos()
#7 /datos/usuarios/alumnos/a023942078k/lampstack-8.1.11-0/frameworks/codeigniter/system/CodeIgniter.php(457): CodeIgniter\CodeIgniter->runController()
#8 /datos/usuarios/alumnos/a023942078k/lampstack-8.1.11-0/frameworks/codeigniter/system/CodeIgniter.php(340): CodeIgniter\CodeIgniter->handleRequest()
#9 /datos/usuarios/alumnos/a023942078k/lampstack-8.1.11-0/frameworks/codeigniter/public/index.php(67): CodeIgniter\CodeIgniter->run()
#10 {main}
CRITICAL - 2022-11-08 02:36:17 --> Unable to connect to the database.
Main connection [MySQLi]: Access denied for user '****'@'localhost' (using password: YES)
in SYSTEMPATH/Database/BaseConnection.php on line 418.
 1 SYSTEMPATH/Database/BaseConnection.php(588): CodeIgniter\Database\BaseConnection->initialize()
 2 SYSTEMPATH/Database/BaseBuilder.php(1585): CodeIgniter\Database\BaseConnection->query()
 3 SYSTEMPATH/Model.php(223): CodeIgniter\Database\BaseBuilder->get()
 4 SYSTEMPATH/BaseModel.php(584): CodeIgniter\Model->doFindAll()
 5 APPPATH/Controllers/Home.php(90): CodeIgniter\BaseModel->findAll()
 6 SYSTEMPATH/CodeIgniter.php(902): App\Controllers\Home->listaGrupos()
 7 SYSTEMPATH/CodeIgniter.php(457): CodeIgniter\CodeIgniter->runController()
 8 SYSTEMPATH/CodeIgniter.php(340): CodeIgniter\CodeIgniter->handleRequest()
 9 FCPATH/index.php(67): CodeIgniter\CodeIgniter->run()
CRITICAL - 2022-11-08 03:03:49 --> Invalid file: nombrealumno/nombrealumno.php
in SYSTEMPATH/Exceptions/FrameworkException.php on line 33.
 1 SYSTEMPATH/View/View.php(201): CodeIgniter\Exceptions\FrameworkException::forInvalidFile()
 2 SYSTEMPATH/Common.php(1142): CodeIgniter\View\View->render()
 3 APPPATH/Controllers/nombre_alumno.php(19): view()
 4 SYSTEMPATH/CodeIgniter.php(902): App\Controllers\nombre_alumno->formnombre_alumno()
 5 SYSTEMPATH/CodeIgniter.php(457): CodeIgniter\CodeIgniter->runController()
 6 SYSTEMPATH/CodeIgniter.php(340): CodeIgniter\CodeIgniter->handleRequest()
 7 FCPATH/index.php(67): CodeIgniter\CodeIgniter->run()
CRITICAL - 2022-11-08 03:04:20 --> Invalid file: nombrealumno/nombrealumno.php
in SYSTEMPATH/Exceptions/FrameworkException.php on line 33.
 1 SYSTEMPATH/View/View.php(201): CodeIgniter\Exceptions\FrameworkException::forInvalidFile()
 2 SYSTEMPATH/Common.php(1142): CodeIgniter\View\View->render()
 3 APPPATH/Controllers/nombre_alumno.php(19): view()
 4 SYSTEMPATH/CodeIgniter.php(902): App\Controllers\nombre_alumno->formnombre_alumno()
 5 SYSTEMPATH/CodeIgniter.php(457): CodeIgniter\CodeIgniter->runController()
 6 SYSTEMPATH/CodeIgniter.php(340): CodeIgniter\CodeIgniter->handleRequest()
 7 FCPATH/index.php(67): CodeIgniter\CodeIgniter->run()
CRITICAL - 2022-11-08 03:27:56 --> Class "App\Controllers\GrupoModel" not found
in APPPATH/Controllers/nombre_alumno.php on line 24.
 1 SYSTEMPATH/CodeIgniter.php(902): App\Controllers\nombre_alumno->lista()
 2 SYSTEMPATH/CodeIgniter.php(457): CodeIgniter\CodeIgniter->runController()
 3 SYSTEMPATH/CodeIgniter.php(340): CodeIgniter\CodeIgniter->handleRequest()
 4 FCPATH/index.php(67): CodeIgniter\CodeIgniter->run()
